transcript
# do sim_simon.do
# ** Warning: (vlib-34) Library already exists at "work".
# Model Technology ModelSim - Intel FPGA Edition vmap 2020.1 Lib Mapping Utility 2020.02 Feb 28 2020
# vmap work work 
# Modifying modelsim.ini
# Model Technology ModelSim - Intel FPGA Edition vlog 2020.1 Compiler 2020.02 Feb 28 2020
# Start time: 19:57:36 on Sep 30,2024
# vlog -reportprogress 300 rtl/rodada_simon.sv 
# -- Compiling module rodada_simon
# 
# Top level modules:
# 	rodada_simon
# End time: 19:57:36 on Sep 30,2024, Elapsed time: 0:00:00
# Errors: 0, Warnings: 0
# Model Technology ModelSim - Intel FPGA Edition vlog 2020.1 Compiler 2020.02 Feb 28 2020
# Start time: 19:57:36 on Sep 30,2024
# vlog -reportprogress 300 rtl/esquema_chave.sv 
# -- Compiling module esquema_chave
# 
# Top level modules:
# 	esquema_chave
# End time: 19:57:36 on Sep 30,2024, Elapsed time: 0:00:00
# Errors: 0, Warnings: 0
# Model Technology ModelSim - Intel FPGA Edition vlog 2020.1 Compiler 2020.02 Feb 28 2020
# Start time: 19:57:36 on Sep 30,2024
# vlog -reportprogress 300 rtl/top_simon.sv 
# -- Compiling module top_simon
# ** Error: rtl/top_simon.sv(34): (vlog-2123) Missing argument for format specification '%x'.
# End time: 19:57:36 on Sep 30,2024, Elapsed time: 0:00:00
# Errors: 1, Warnings: 0
# ** Error: C:/intelFPGA/20.1/modelsim_ase/win32aloem/vlog failed.
# Error in macro ./sim_simon.do line 6
# C:/intelFPGA/20.1/modelsim_ase/win32aloem/vlog failed.
#     while executing
# "vlog rtl/top_simon.sv"
do sim_simon.do
# ** Warning: (vlib-34) Library already exists at "work".
# Model Technology ModelSim - Intel FPGA Edition vmap 2020.1 Lib Mapping Utility 2020.02 Feb 28 2020
# vmap work work 
# Modifying modelsim.ini
# Model Technology ModelSim - Intel FPGA Edition vlog 2020.1 Compiler 2020.02 Feb 28 2020
# Start time: 19:58:03 on Sep 30,2024
# vlog -reportprogress 300 rtl/rodada_simon.sv 
# -- Compiling module rodada_simon
# 
# Top level modules:
# 	rodada_simon
# End time: 19:58:03 on Sep 30,2024, Elapsed time: 0:00:00
# Errors: 0, Warnings: 0
# Model Technology ModelSim - Intel FPGA Edition vlog 2020.1 Compiler 2020.02 Feb 28 2020
# Start time: 19:58:03 on Sep 30,2024
# vlog -reportprogress 300 rtl/esquema_chave.sv 
# -- Compiling module esquema_chave
# 
# Top level modules:
# 	esquema_chave
# End time: 19:58:03 on Sep 30,2024, Elapsed time: 0:00:00
# Errors: 0, Warnings: 0
# Model Technology ModelSim - Intel FPGA Edition vlog 2020.1 Compiler 2020.02 Feb 28 2020
# Start time: 19:58:03 on Sep 30,2024
# vlog -reportprogress 300 rtl/top_simon.sv 
# -- Compiling module top_simon
# 
# Top level modules:
# 	top_simon
# End time: 19:58:03 on Sep 30,2024, Elapsed time: 0:00:00
# Errors: 0, Warnings: 0
# Model Technology ModelSim - Intel FPGA Edition vlog 2020.1 Compiler 2020.02 Feb 28 2020
# Start time: 19:58:03 on Sep 30,2024
# vlog -reportprogress 300 sim/testbench.sv 
# -- Compiling module testbench
# 
# Top level modules:
# 	testbench
# End time: 19:58:03 on Sep 30,2024, Elapsed time: 0:00:00
# Errors: 0, Warnings: 0
# vsim work.testbench 
# Start time: 19:58:03 on Sep 30,2024
# Loading sv_std.std
# Loading work.testbench
# Loading work.top_simon
# Loading work.esquema_chave
# Loading work.rodada_simon
run -all
# X=74636364616e6965, Y=6c31322f32303234, K=6c31322f32303234
# X=b1cfc9d1c7f1e5d5, Y=74636364616e6965, K=74636364616e6965
# X=84b6b6c49e2656f7, Y=b1cfc9d1c7f1e5d5, K=95fb6875f80b198e
# X=36ca3e3e63270201, Y=84b6b6c49e2656f7, K=b07c47127e104431
# X=a7f6354f6aa81ac0, Y=36ca3e3e63270201, K=470cdb196fd7eab7
# X=a83a7a1026408335, Y=a7f6354f6aa81ac0, K=d312ee3f3ae83831
# X=c47d231089c32a0f, Y=a83a7a1026408335, K=9fa057c284db91ce
# X=2e4ca1918695bec0, Y=c47d231089c32a0f, K=16e31e44bdc10ce9
# X=272dba102b7e9de6, Y=2e4ca1918695bec0, K=d3edfa11a7405f60
# X=6d0da3e0dab2b43c, Y=272dba102b7e9de6, K=fe5f81586ca2fd0e
# X=6547f40b9d329871, Y=6d0da3e0dab2b43c, K=1c3c0dd0d3e1d0ec
# X=a6aa760b4f993575, Y=6547f40b9d329871, K=43e43fc0841f25e1
# X=b45e1be0be7908e4, Y=a6aa760b4f993575, K=df81362b34dc39f3
# X=e04b0f22faa12f94, Y=b45e1be0be7908e4, K=fa13f598ae369ebd
# X=8f67d0b35bc93c2a, Y=e04b0f22faa12f94, K=409d883e54067c32
# X=9b89649340938b09, Y=8f67d0b35bc93c2a, K=69f663e37e09c904
# X=89b4a01da68dd91b, Y=9b89649340938b09, K=74c3dd83f3d8267e
# X=d9b839442465db18, Y=89b4a01da68dd91b, K=bfddda74c0b0b050
# X=e0b9df79b7611539, Y=d9b839442465db18, K=973a4495d83ac48d
# X=4d36388441db6312, Y=e0b9df79b7611539, K=2bb6c950d9cbbb75
# X=edfff438eae52001, Y=4d36388441db6312, K=9f080ed53160f7a8
# X=be35ced21e2f14bc, Y=edfff438eae52001, K=4e58b798d30e5507
# X=6f3ae8ec6d430fcc, Y=be35ced21e2f14bc, K=fdd96ca059ce27a5
# X=e567c18bb0eb0020, Y=6f3ae8ec6d430fcc, K=51c1f33922548c75
# X=e9a59eebedbb837b, Y=e567c18bb0eb0020, K=fd02b20b105e0111
# X=3ff921ea8d580e3f, Y=e9a59eebedbb837b, K=8e4e71a70ea553ba
# X=e12f2a63ce7ef403, Y=3ff921ea8d580e3f, K=fbd064da7e9f01a1
# X=429fac79d6c8df90, Y=e12f2a63ce7ef403, K=5176848e1960bc69
# X=3f0b47d804aca62b, Y=429fac79d6c8df90, K=bb1623fca3dae216
# X=0fa218e56fa0ad3c, Y=3f0b47d804aca62b, K=125add31b8d9b1f6
# X=11d9d83682f6bb25, Y=0fa218e56fa0ad3c, K=e7872a7670b3b0ca
# X=aed262491060d562, Y=11d9d83682f6bb25, K=1f2db527ee3b031e
# X=e59da4250d8fcf35, Y=aed262491060d562, K=3a6fb87f0c689f64
# X=8beb4aaa213862b0, Y=e59da4250d8fcf35, K=24394650008f66f8
# X=ed4b48dd8981a30e, Y=8beb4aaa213862b0, K=4354fb2ff38e7a28
# X=3792037af5b392ae, Y=ed4b48dd8981a30e, K=57996978fe39b1e2
# X=669a2ebb02747c40, Y=3792037af5b392ae, K=d321bf689c5528f6
# X=f6ff1ffc645f0b59, Y=669a2ebb02747c40, K=1f30ba9c9b89b98e
# X=4f48d7b6408bf81b, Y=f6ff1ffc645f0b59, K=0ecb5c6d39637ba3
# X=cd86bb08de038091, Y=4f48d7b6408bf81b, K=b1fa9b2810cc1ebc
# X=4aa1a0ad2849e5e1, Y=cd86bb08de038091, K=ac1459454589c663
# X=ca1461f17a2c1035, Y=4aa1a0ad2849e5e1, K=0146aa6b13da45ea
# X=77964c61f733c096, Y=ca1461f17a2c1035, K=b3d719516930d57d
# X=219649e4ed934735, Y=77964c61f733c096, K=93fec72bd790adee
# X=60392c1005e8758c, Y=219649e4ed934735, K=7768d239514435e2
# X=d63a3b9da3262ce6, Y=60392c1005e8758c, K=059aafb0975397f0
# X=157b78f5182f1123, Y=d63a3b9da3262ce6, K=887dd2cbb524819e
# X=21dafb8a56aecbf0, Y=157b78f5182f1123, K=c3ed373aa55ab027
# X=134c23f24b871ee4, Y=21dafb8a56aecbf0, K=f3c158a0b4258365
# X=9b2b6ea34b991705, Y=134c23f24b871ee4, K=dd56f65b4763a780
# X=80f1ee66b392e179, Y=9b2b6ea34b991705, K=1a4116f197403210
# X=834f854910b3e073, Y=80f1ee66b392e179, K=20453a1593005d1e
# X=ab0fc947433d7d2a, Y=834f854910b3e073, K=c3b21ded83efc39e
# X=eacbbfbb9bd1fd46, Y=ab0fc947433d7d2a, K=ebf7a78904bca6a8
# X=2a41ab3339676c11, Y=eacbbfbb9bd1fd46, K=af8c6c9bcccc62dc
# X=acc26dccd0cc3ffc, Y=2a41ab3339676c11, K=4b01132c3e161322
# X=924dc7bcc459fc69, Y=acc26dccd0cc3ffc, K=3da3a03377103e77
# X=dcd55f4cbe0b98bf, Y=924dc7bcc459fc69, K=2090a2d6987ae8f6
# X=508214c0ac1d473c, Y=dcd55f4cbe0b98bf, K=644741bb3267321a
# X=7a9e4d75241bba04, Y=508214c0ac1d473c, K=35a3c105b2ef8269
# X=1b54f03186ae294c, Y=7a9e4d75241bba04, K=2e56fa7420ebc58c
# X=2d3b57c512409aa0, Y=1b54f03186ae294c, K=8d738e138b03b97c
# X=389ca434442fdab0, Y=2d3b57c512409aa0, K=88d04ca896c476c8
# X=57b98bfc9c613688, Y=389ca434442fdab0, K=eb1b7cb3ef488f34
# X=2462e3edfae187b5, Y=57b98bfc9c613688, K=a4fd6b0a2a261020
# X=220eaa9bbc423d5c, Y=2462e3edfae187b5, K=0a34f89df751d3cf
# X=a264a02abcbcf92a, Y=220eaa9bbc423d5c, K=4ae7446fb446c899
# X=a5fb6e4ac28e336f, Y=a264a02abcbcf92a, K=48399ba9056299a8
# Criptografia = 36d6ca2837f6cbb9a5fb6e4ac28e336f
# ** Note: $finish    : sim/testbench.sv(33)
#    Time: 1460 ps  Iteration: 1  Instance: /testbench
# 1
# Break in Module testbench at sim/testbench.sv line 33
add wave -position insertpoint  \
sim:/testbench/simon/key_sched/c \
sim:/testbench/simon/key_sched/z2 \
sim:/testbench/simon/key_sched/clk \
sim:/testbench/simon/key_sched/rst_n \
sim:/testbench/simon/key_sched/k0_i \
sim:/testbench/simon/key_sched/kj_o \
sim:/testbench/simon/key_sched/z \
sim:/testbench/simon/key_sched/rc \
sim:/testbench/simon/key_sched/k1 \
sim:/testbench/simon/key_sched/k2 \
sim:/testbench/simon/key_sched/k2_proximo \
sim:/testbench/simon/key_sched/k2_r3 \
sim:/testbench/simon/key_sched/tmp1 \
sim:/testbench/simon/key_sched/k2_r3_r1 \
sim:/testbench/simon/key_sched/tmp2
restart -f
run -all
# X=74636364616e6965, Y=6c31322f32303234, K=6c31322f32303234
# X=b1cfc9d1c7f1e5d5, Y=74636364616e6965, K=74636364616e6965
# X=84b6b6c49e2656f7, Y=b1cfc9d1c7f1e5d5, K=95fb6875f80b198e
# X=36ca3e3e63270201, Y=84b6b6c49e2656f7, K=b07c47127e104431
# X=a7f6354f6aa81ac0, Y=36ca3e3e63270201, K=470cdb196fd7eab7
# X=a83a7a1026408335, Y=a7f6354f6aa81ac0, K=d312ee3f3ae83831
# X=c47d231089c32a0f, Y=a83a7a1026408335, K=9fa057c284db91ce
# X=2e4ca1918695bec0, Y=c47d231089c32a0f, K=16e31e44bdc10ce9
# X=272dba102b7e9de6, Y=2e4ca1918695bec0, K=d3edfa11a7405f60
# X=6d0da3e0dab2b43c, Y=272dba102b7e9de6, K=fe5f81586ca2fd0e
# X=6547f40b9d329871, Y=6d0da3e0dab2b43c, K=1c3c0dd0d3e1d0ec
# X=a6aa760b4f993575, Y=6547f40b9d329871, K=43e43fc0841f25e1
# X=b45e1be0be7908e4, Y=a6aa760b4f993575, K=df81362b34dc39f3
# X=e04b0f22faa12f94, Y=b45e1be0be7908e4, K=fa13f598ae369ebd
# X=8f67d0b35bc93c2a, Y=e04b0f22faa12f94, K=409d883e54067c32
# X=9b89649340938b09, Y=8f67d0b35bc93c2a, K=69f663e37e09c904
# X=89b4a01da68dd91b, Y=9b89649340938b09, K=74c3dd83f3d8267e
# X=d9b839442465db18, Y=89b4a01da68dd91b, K=bfddda74c0b0b050
# X=e0b9df79b7611539, Y=d9b839442465db18, K=973a4495d83ac48d
# X=4d36388441db6312, Y=e0b9df79b7611539, K=2bb6c950d9cbbb75
# X=edfff438eae52001, Y=4d36388441db6312, K=9f080ed53160f7a8
# X=be35ced21e2f14bc, Y=edfff438eae52001, K=4e58b798d30e5507
# X=6f3ae8ec6d430fcc, Y=be35ced21e2f14bc, K=fdd96ca059ce27a5
# X=e567c18bb0eb0020, Y=6f3ae8ec6d430fcc, K=51c1f33922548c75
# X=e9a59eebedbb837b, Y=e567c18bb0eb0020, K=fd02b20b105e0111
# X=3ff921ea8d580e3f, Y=e9a59eebedbb837b, K=8e4e71a70ea553ba
# X=e12f2a63ce7ef403, Y=3ff921ea8d580e3f, K=fbd064da7e9f01a1
# X=429fac79d6c8df90, Y=e12f2a63ce7ef403, K=5176848e1960bc69
# X=3f0b47d804aca62b, Y=429fac79d6c8df90, K=bb1623fca3dae216
# X=0fa218e56fa0ad3c, Y=3f0b47d804aca62b, K=125add31b8d9b1f6
# X=11d9d83682f6bb25, Y=0fa218e56fa0ad3c, K=e7872a7670b3b0ca
# X=aed262491060d562, Y=11d9d83682f6bb25, K=1f2db527ee3b031e
# X=e59da4250d8fcf35, Y=aed262491060d562, K=3a6fb87f0c689f64
# X=8beb4aaa213862b0, Y=e59da4250d8fcf35, K=24394650008f66f8
# X=ed4b48dd8981a30e, Y=8beb4aaa213862b0, K=4354fb2ff38e7a28
# X=3792037af5b392ae, Y=ed4b48dd8981a30e, K=57996978fe39b1e2
# X=669a2ebb02747c40, Y=3792037af5b392ae, K=d321bf689c5528f6
# X=f6ff1ffc645f0b59, Y=669a2ebb02747c40, K=1f30ba9c9b89b98e
# X=4f48d7b6408bf81b, Y=f6ff1ffc645f0b59, K=0ecb5c6d39637ba3
# X=cd86bb08de038091, Y=4f48d7b6408bf81b, K=b1fa9b2810cc1ebc
# X=4aa1a0ad2849e5e1, Y=cd86bb08de038091, K=ac1459454589c663
# X=ca1461f17a2c1035, Y=4aa1a0ad2849e5e1, K=0146aa6b13da45ea
# X=77964c61f733c096, Y=ca1461f17a2c1035, K=b3d719516930d57d
# X=219649e4ed934735, Y=77964c61f733c096, K=93fec72bd790adee
# X=60392c1005e8758c, Y=219649e4ed934735, K=7768d239514435e2
# X=d63a3b9da3262ce6, Y=60392c1005e8758c, K=059aafb0975397f0
# X=157b78f5182f1123, Y=d63a3b9da3262ce6, K=887dd2cbb524819e
# X=21dafb8a56aecbf0, Y=157b78f5182f1123, K=c3ed373aa55ab027
# X=134c23f24b871ee4, Y=21dafb8a56aecbf0, K=f3c158a0b4258365
# X=9b2b6ea34b991705, Y=134c23f24b871ee4, K=dd56f65b4763a780
# X=80f1ee66b392e179, Y=9b2b6ea34b991705, K=1a4116f197403210
# X=834f854910b3e073, Y=80f1ee66b392e179, K=20453a1593005d1e
# X=ab0fc947433d7d2a, Y=834f854910b3e073, K=c3b21ded83efc39e
# X=eacbbfbb9bd1fd46, Y=ab0fc947433d7d2a, K=ebf7a78904bca6a8
# X=2a41ab3339676c11, Y=eacbbfbb9bd1fd46, K=af8c6c9bcccc62dc
# X=acc26dccd0cc3ffc, Y=2a41ab3339676c11, K=4b01132c3e161322
# X=924dc7bcc459fc69, Y=acc26dccd0cc3ffc, K=3da3a03377103e77
# X=dcd55f4cbe0b98bf, Y=924dc7bcc459fc69, K=2090a2d6987ae8f6
# X=508214c0ac1d473c, Y=dcd55f4cbe0b98bf, K=644741bb3267321a
# X=7a9e4d75241bba04, Y=508214c0ac1d473c, K=35a3c105b2ef8269
# X=1b54f03186ae294c, Y=7a9e4d75241bba04, K=2e56fa7420ebc58c
# X=2d3b57c512409aa0, Y=1b54f03186ae294c, K=8d738e138b03b97c
# X=389ca434442fdab0, Y=2d3b57c512409aa0, K=88d04ca896c476c8
# X=57b98bfc9c613688, Y=389ca434442fdab0, K=eb1b7cb3ef488f34
# X=2462e3edfae187b5, Y=57b98bfc9c613688, K=a4fd6b0a2a261020
# X=220eaa9bbc423d5c, Y=2462e3edfae187b5, K=0a34f89df751d3cf
# X=a264a02abcbcf92a, Y=220eaa9bbc423d5c, K=4ae7446fb446c899
# X=a5fb6e4ac28e336f, Y=a264a02abcbcf92a, K=48399ba9056299a8
# Criptografia = 36d6ca2837f6cbb9a5fb6e4ac28e336f
# ** Note: $finish    : sim/testbench.sv(33)
#    Time: 1460 ps  Iteration: 1  Instance: /testbench
# 1
# Break in Module testbench at sim/testbench.sv line 33
do sim_simon.do
# ** Warning: (vlib-34) Library already exists at "work".
# Model Technology ModelSim - Intel FPGA Edition vmap 2020.1 Lib Mapping Utility 2020.02 Feb 28 2020
# vmap work work 
# Modifying modelsim.ini
# Model Technology ModelSim - Intel FPGA Edition vlog 2020.1 Compiler 2020.02 Feb 28 2020
# Start time: 20:18:23 on Sep 30,2024
# vlog -reportprogress 300 rtl/rodada_simon.sv 
# -- Compiling module rodada_simon
# 
# Top level modules:
# 	rodada_simon
# End time: 20:18:23 on Sep 30,2024, Elapsed time: 0:00:00
# Errors: 0, Warnings: 0
# Model Technology ModelSim - Intel FPGA Edition vlog 2020.1 Compiler 2020.02 Feb 28 2020
# Start time: 20:18:23 on Sep 30,2024
# vlog -reportprogress 300 rtl/esquema_chave.sv 
# -- Compiling module esquema_chave
# 
# Top level modules:
# 	esquema_chave
# End time: 20:18:23 on Sep 30,2024, Elapsed time: 0:00:00
# Errors: 0, Warnings: 0
# Model Technology ModelSim - Intel FPGA Edition vlog 2020.1 Compiler 2020.02 Feb 28 2020
# Start time: 20:18:23 on Sep 30,2024
# vlog -reportprogress 300 rtl/top_simon.sv 
# -- Compiling module top_simon
# 
# Top level modules:
# 	top_simon
# End time: 20:18:24 on Sep 30,2024, Elapsed time: 0:00:01
# Errors: 0, Warnings: 0
# Model Technology ModelSim - Intel FPGA Edition vlog 2020.1 Compiler 2020.02 Feb 28 2020
# Start time: 20:18:24 on Sep 30,2024
# vlog -reportprogress 300 sim/testbench.sv 
# -- Compiling module testbench
# 
# Top level modules:
# 	testbench
# End time: 20:18:24 on Sep 30,2024, Elapsed time: 0:00:00
# Errors: 0, Warnings: 0
# End time: 20:18:28 on Sep 30,2024, Elapsed time: 0:20:25
# Errors: 0, Warnings: 0
# vsim work.testbench 
# Start time: 20:18:28 on Sep 30,2024
# Loading sv_std.std
# Loading work.testbench
# Loading work.top_simon
# Loading work.esquema_chave
# Loading work.rodada_simon
run -all
# X=74636364616e6965, Y=6c31322f32303234, K=6c31322f32303234
# X=b1cfc9d1c7f1e5d5, Y=74636364616e6965, K=74636364616e6965
# X=84b6b6c49e2656f7, Y=b1cfc9d1c7f1e5d5, K=6a04978a07f4e673
# X=c935c1c19cd8fdfc, Y=84b6b6c49e2656f7, K=d07c47127e104430
# X=605c77508be41dfd, Y=c935c1c19cd8fdfc, K=82f324e69028154b
# X=8a8778e42768a622, Y=605c77508be41dfd, K=e7f2ee3f3ae83831
# X=a8bb9aff642ebd46, Y=8a8778e42768a622, K=5f8da83d7b246e33
# X=66f68e40c4eb7f83, Y=a8bb9aff642ebd46, K=46047e44bdc10ce9
# X=b1e9dd384314cca4, Y=66f68e40c4eb7f83, K=1cd29fee58bfa09d
# X=dc525d0f940f6d8d, Y=b1e9dd384314cca4, K=cbacfbb86ca2fd0e
# X=1b0858aa77870e85, Y=dc525d0f940f6d8d, K=d6e230dd2c1e2f10
# X=6681af2fe1037d83, Y=1b0858aa77870e85, K=23e16151e41f25e0
# X=23ec8b0515915e6e, Y=6681af2fe1037d83, K=2f5ff51df123c60f
# X=82e572264767ee34, Y=23ec8b0515915e6e, K=cb009f5c7ad69ebc
# X=e63bf88474166c00, Y=82e572264767ee34, K=857010fc462b83cf
# X=970a00cbd139ddf8, Y=e63bf88474166c00, K=3c0663b3c98ea905
# X=8c159989d92e0a76, Y=970a00cbd139ddf8, K=8ecf454efc7d4383
# X=399a22b36bf4a32d, Y=8c159989d92e0a76, K=8acc80b106392ab1
# X=f2919297a464a86b, Y=399a22b36bf4a32d, K=58c5e2ac33260b82
# X=2a1b8f6589c849d2, Y=f2919297a464a86b, K=1ba79d31bc907485
# X=515f36b93fd56986, Y=2a1b8f6589c849d2, K=55f49726e082fda7
# X=38a5eb95c337906c, Y=515f36b93fd56986, K=7bb9b958f177fb16
# X=e93ab4b5c47cf338, Y=38a5eb95c337906c, K=02c7c4678e448288
# X=8cbcdc655471fe66, Y=e93ab4b5c47cf338, K=0432c26d87a4dc92
# X=c7a3270d32fdb2bc, Y=8cbcdc655471fe66, K=9dfd4ff31935ab2f
# X=8ccb03b0e300bbfb, Y=c7a3270d32fdb2bc, K=f1ad40932aeeccb9
# X=0c20693c9410e26f, Y=8ccb03b0e300bbfb, K=c32dcc17b139618e
# X=7f277b45025a17c5, Y=0c20693c9410e26f, K=3a05da2f5825896c
# X=ecf21a05c549311c, Y=7f277b45025a17c5, K=7832d50f504077c9
# X=64ddc25c4f2ea457, Y=ecf21a05c549311c, K=7d7f5221b8d67f14
# X=cb78455d4f219f71, Y=64ddc25c4f2ea457, K=4fb5359683282027
# X=16c9eab5f083c974, Y=cb78455d4f219f71, K=1f8d5835ff7e06ee
# X=865022dff351ac4f, Y=16c9eab5f083c974, K=9243b4ec9ccfff68
# X=9dea9095e1aacfa4, Y=865022dff351ac4f, K=7b1eea195ad4f909
# X=a0748bb0ad6befdd, Y=9dea9095e1aacfa4, K=d56e78f1ddc7d024
# X=89dfd687c3057d56, Y=a0748bb0ad6befdd, K=531a3d77834f81f3
# X=c78769db2639c9fd, Y=89dfd687c3057d56, K=75c36377aa6527f8
# X=6509c1baf9c6ec9a, Y=c78769db2639c9fd, K=250198d1f35a888f
# X=7ea07590f0f46b3f, Y=6509c1baf9c6ec9a, K=9cccb61f74c4219d
# X=a30421c6aebb7784, Y=7ea07590f0f46b3f, K=b0ab3a8c1571b159
# X=461b8a8a461e8075, Y=a30421c6aebb7784, K=ce2c9d19c8c2f35f
# X=7d4496f27203854c, Y=461b8a8a461e8075, K=4a739f014f1a3ffa
# X=b9fa6e22c10fa2a6, Y=7d4496f27203854c, K=dc3a28f60a2fe8a3
# X=34f306ce7e10e37c, Y=b9fa6e22c10fa2a6, K=f3c8876f1102c398
# X=f8f8fe68386fa8fe, Y=34f306ce7e10e37c, K=b2804f92e6e06315
# X=9560d8ec19c6736a, Y=f8f8fe68386fa8fe, K=e14f759b9c4f3636
# X=6cf4485bc13931f7, Y=9560d8ec19c6736a, K=ff42a987d352894d
# X=09bb4085ce405e96, Y=6cf4485bc13931f7, K=7eacf5cce4efb076
# X=27f53e8a1cd76fd1, Y=09bb4085ce405e96, K=a882079d7e7e7bb9
# X=7bc7b524d24d4b49, Y=27f53e8a1cd76fd1, K=2ecb6ab963386747
# X=21a5a0e032d025a1, Y=7bc7b524d24d4b49, K=c048239e3bd50ed8
# X=3c19553a62f8d215, Y=21a5a0e032d025a1, K=4539130cb800698d
# X=8ce9cd65c1e30050, Y=3c19553a62f8d215, K=43436f3098aafa8d
# X=453c0f5c7ede295a, Y=8ce9cd65c1e30050, K=c69ab7e65d606689
# X=568b5bcabbd391b4, Y=453c0f5c7ede295a, K=18066d4dc92f0fc8
# X=8e058faa0b3e4003, Y=568b5bcabbd391b4, K=bbe5e364c7288871
# X=d1738c06464219cd, Y=8e058faa0b3e4003, K=cb3b70e8e24769bc
# X=2274cf5ff0714f19, Y=d1738c06464219cd, K=11cec588aabbec21
# X=0da76a414d7ed1aa, Y=2274cf5ff0714f19, K=07e1bbfe82445507
# X=10429da45d1ffeb2, Y=0da76a414d7ed1aa, K=7eb316b76d28dc2c
# X=329b2a2f4e17474e, Y=10429da45d1ffeb2, K=b02317bce6cc3cbc
# X=6b2f26eb9788d126, Y=329b2a2f4e17474e, K=dc4abac4c062678c
# X=446b42d2d8474613, Y=6b2f26eb9788d126, K=199114b7cd39a9c8
# X=6b51b9973baa60a7, Y=446b42d2d8474613, K=a11e76e6bae937d4
# X=1892c142ae477210, Y=6b51b9973baa60a7, K=385cc2fa8e35e3b2
# X=21477ce348804b55, Y=1892c142ae477210, K=3a6fdd69bc332a65
# X=e5ec0ee6b0756101, Y=21477ce348804b55, K=33483b7edd8f4ba5
# X=4db7788734ba84f6, Y=e5ec0ee6b0756101, K=30cda64e75a5c857
# Criptografia = 7094cbb03f3ebac34db7788734ba84f6
# ** Note: $finish    : sim/testbench.sv(33)
#    Time: 1460 ps  Iteration: 1  Instance: /testbench
# 1
# Break in Module testbench at sim/testbench.sv line 33
# End time: 20:47:55 on Sep 30,2024, Elapsed time: 0:29:27
# Errors: 0, Warnings: 0
